{
  "project_info": {
    "project_number": "736012444788",
    "firebase_url": "https://vlogy-2b2b5.firebaseio.com",
    "project_id": "vlogy-2b2b5",
    "storage_bucket": "vlogy-2b2b5.appspot.com"
  },
  "client": [
    {
      "client_info": {
        "mobilesdk_app_id": "1:736012444788:android:bf7efe47231928a1a25d21",
        "android_client_info": {
          "package_name": "com.mozostar.app"
        }
      },
      "oauth_client": [
        {
          "client_id": "736012444788-cqcraiikra2dvg5411q85lp4aevj3bag.apps.googleusercontent.com",
          "client_type": 3
        }
      ],
      "api_key": [
        {
          "current_key": "AIzaSyDQ4ca2gjJnM5ek2po701zeg05cNQEychE"
        }
      ],
      "services": {
        "appinvite_service": {
          "other_platform_oauth_client": [
            {
              "client_id": "736012444788-cqcraiikra2dvg5411q85lp4aevj3bag.apps.googleusercontent.com",
              "client_type": 3
            }
          ]
        }
      }
    }
  ],
  "configuration_version": "1"
}